Failed OCR print
DF got null at code dump and saved empty file
Resize image before ocr

Time for 29210 image ocr 47606.44565820694 secs

68156  row- to download and ocr
68157  row- to download and ocr
Start downloading the batch...
Finish downloading the batch... Time:  0.0011665821075439453
------Object Detection Begins------
Time for box detection:  0.4140791893005371
Time for ocr completion for all bbox:  1.4233651161193848
Total time for execution ocr-end:  1.8409547805786133
Successful ocr  68066
Command '['wget', '-U', 'Mozilla/4.0 (compatible; MSIE 5.5; Windows NT)', '--connect-timeout=3', '--tries=1', '-nc', '-q', 'https://nhs-dynamic.secure.footprint.net//Images/Homes/Antar1163/19118908-160713.jpg', '-O', './resources/copyright-ocr/68062.jpg']' returned non-zero exit status 4.
Command '['wget', '-U', 'Mozilla/4.0 (compatible; MSIE 5.5; Windows NT)', '--connect-timeout=3', '--tries=1', '-nc', '-q', 'https://nhs-dynamic.secure.footprint.net//Images/Homes/DavidWeekleyHom/19118871-160713.jpg', '-O', './resources/copyright-ocr/68058.jpg']' returned non-zero exit status 4.
HTTPSConnectionPool(host='nhs-dynamic.secure.footprint.net', port=443): Read timed out. (read timeout=1)
HTTPSConnectionPool(host='nhs-dynamic.secure.footprint.net', port=443): Read timed out. (read timeout=1)
------Object Detection Begins------
Time for box detection:  0.28392791748046875
Time for ocr completion for all bbox:  1.3574862480163574
Total time for execution ocr-end:  1.6420891284942627
Successful ocr  68060
Traceback (most recent call last):
  File "run_ocr_copyright-multithread.py", line 120, in <module>
    main()
  File "run_ocr_copyright-multithread.py", line 92, in main
    for record in idx_url_image_list:
  File "/home/dsserver/miniconda/envs/tesseract/lib/python3.6/multiprocessing/pool.py", line 735, in next
    raise value
  File "/home/dsserver/miniconda/envs/tesseract/lib/python3.6/multiprocessing/pool.py", line 119, in worker
    result = (True, func(*args, **kwds))
  File "run_ocr_copyright-multithread.py", line 28, in process_image_url
    download_status, dl_status = ImageUtils.get_image_from_url(image_url, full_image_path)
  File "/home/dsserver/projects/Manish/ocr/fp-ocr/common_utils.py", line 369, in get_image_from_url
    ret, curl_status = cls.download_image(image_url, full_image_path, method='curl')
  File "/home/dsserver/projects/Manish/ocr/fp-ocr/common_utils.py", line 677, in download_image
    check_output(command, stderr=FILE_NULL)
  File "/home/dsserver/miniconda/envs/tesseract/lib/python3.6/subprocess.py", line 356, in check_output
    **kwargs).stdout
  File "/home/dsserver/miniconda/envs/tesseract/lib/python3.6/subprocess.py", line 423, in run
    with Popen(*popenargs, **kwargs) as process:
  File "/home/dsserver/miniconda/envs/tesseract/lib/python3.6/subprocess.py", line 687, in __init__
    errread, errwrite) = self._get_handles(stdin, stdout, stderr)
  File "/home/dsserver/miniconda/envs/tesseract/lib/python3.6/subprocess.py", line 1221, in _get_handles
    errwrite = stderr.fileno()
ValueError: I/O operation on closed file





$$$$$$$$$$$$$$$$$$$$$$$$$$$$$$$$$$$$$$$$$$$$$$$$$$$$$$$$$
921  row- to download and ocr                                                                                          
68922  row- to download and ocr                                                                                                                             
68923  row- to download and ocr                                                                                                                                                                             Start downloading the batch...                                               
Command '['wget', '-U', 'Mozilla/4.0 (compatible; MSIE 5.5; Windows NT)', '--connect-timeout=3', '--tries=1', '-nc', '-q', 'https://nhs-dynamic.secure.footprint.net//Images/Homes/Ashto1097/18270972-160508
.jpg', '-O', './resources/copyright-ocr/26342.jpg']' returned non-zero exit status 1.                                                                              
Command '['wget', '-U', 'Mozilla/4.0 (compatible; MSIE 5.5; Windows NT)', '--connect-timeout=3', '--tries=1', '-nc', '-q', 'https://nhs-dynamic.secure.footprint.net//Images/Homes/Ashto1097/18270974-160508
.jpg', '-O', './resources/copyright-ocr/28300.jpg']' returned non-zero exit status 1.                                                                              
Command '['wget', '-U', 'Mozilla/4.0 (compatible; MSIE 5.5; Windows NT)', '--connect-timeout=3', '--tries=1', '-nc', '-q', 'https://nhs-dynamic.secure.footprint.net//Images/Homes/Calatlantic/18649801-1606
01.jpg', '-O', './resources/copyright-ocr/14279.jpg']' returned non-zero exit status 1.                                                                    
Command '['wget', '-U', 'Mozilla/4.0 (compatible; MSIE 5.5; Windows NT)', '--connect-timeout=3', '--tries=1', '-nc', '-q', 'https://nhs-dynamic.secure.footprint.net//Images/Homes/Ashto1097/18270975-160508
.jpg', '-O', './resources/copyright-ocr/28301.jpg']' returned non-zero exit status 1.                                                                      
Command '['wget', '-U', 'Mozilla/4.0 (compatible; MSIE 5.5; Windows NT)', '--connect-timeout=3', '--tries=1', '-nc', '-q', 'https://nhs-dynamic.secure.footprint.net//Images/Homes/Calatlantic/18870311-1606
19.jpg', '-O', './resources/copyright-ocr/40222.jpg']' returned non-zero exit status 1.                                                                    
Command '['wget', '-U', 'Mozilla/4.0 (compatible; MSIE 5.5; Windows NT)', '--connect-timeout=3', '--tries=1', '-nc', '-q', 'https://nhs-dynamic.secure.footprint.net//Images/Homes/DelWebbCorp/10688182.jpg'
, '-O', './resources/copyright-ocr/30157.jpg']' returned non-zero exit status 1.                                                                           
Command '['wget', '-U', 'Mozilla/4.0 (compatible; MSIE 5.5; Windows NT)', '--connect-timeout=3', '--tries=1', '-nc', '-q', 'https://nhs-dynamic.secure.footprint.net//Images/Homes/Calatlantic/18869548-1606
19.jpg', '-O', './resources/copyright-ocr/40223.jpg']' returned non-zero exit status 1.                                                                    
Command '['wget', '-U', 'Mozilla/4.0 (compatible; MSIE 5.5; Windows NT)', '--connect-timeout=3', '--tries=1', '-nc', '-q', 'https://nhs-dynamic.secure.footprint.net//Images/Homes/PulteHom/12902756', '-O',
 './resources/copyright-ocr/64844.12902756']' returned non-zero exit status 1.                                                                             
Command '['wget', '-U', 'Mozilla/4.0 (compatible; MSIE 5.5; Windows NT)', '--connect-timeout=3', '--tries=1', '-nc', '-q', 'https://nhs-dynamic.secure.footprint.net//Images/Homes/PulteHom/12902755', '-O',
 './resources/copyright-ocr/64843.12902755']' returned non-zero exit status 1.                                                                             
Command '['wget', '-U', 'Mozilla/4.0 (compatible; MSIE 5.5; Windows NT)', '--connect-timeout=3', '--tries=1', '-nc', '-q', 'https://nhs-dynamic.secure.footprint.net//Images/Homes/PulteHom/12902757', '-O',
 './resources/copyright-ocr/64845.12902757']' returned non-zero exit status 1.
Image_url could not be downloaded via curl https://nhs-dynamic.secure.footprint.net//Images/Homes/Ashto1097/18270974-160508.jpg - 406
ImageClassifierError - Download/Read Error,https://nhs-dynamic.secure.footprint.net//Images/Homes/Ashto1097/18270974-160508.jpg,./resources/copyright-ocr/28300.jpg
Command '['wget', '-U', 'Mozilla/4.0 (compatible; MSIE 5.5; Windows NT)', '--connect-timeout=3', '--tries=1', '-nc', '-q', 'https://nhs-dynamic.secure.footprint.net//Images/Homes/PulteHom/15640956.jpg', '
-O', './resources/copyright-ocr/64846.jpg']' returned non-zero exit status 1.
Image_url could not be downloaded via curl https://nhs-dynamic.secure.footprint.net//Images/Homes/DelWebbCorp/10688182.jpg - 406
ImageClassifierError - Download/Read Error,https://nhs-dynamic.secure.footprint.net//Images/Homes/DelWebbCorp/10688182.jpg,./resources/copyright-ocr/30157.jpg
Image_url could not be downloaded via curl https://nhs-dynamic.secure.footprint.net//Images/Homes/PulteHom/12902755 - 406
ImageClassifierError - Download/Read Error,https://nhs-dynamic.secure.footprint.net//Images/Homes/PulteHom/12902755,./resources/copyright-ocr/64843.12902755
Image_url could not be downloaded via curl https://nhs-dynamic.secure.footprint.net//Images/Homes/Calatlantic/18870311-160619.jpg - 404
ImageClassifierError - Download/Read Error,https://nhs-dynamic.secure.footprint.net//Images/Homes/Calatlantic/18870311-160619.jpg,./resources/copyright-ocr/40222.jpg
Image_url could not be downloaded via curl https://nhs-dynamic.secure.footprint.net//Images/Homes/PulteHom/12902757 - 406
ImageClassifierError - Download/Read Error,https://nhs-dynamic.secure.footprint.net//Images/Homes/PulteHom/12902757,./resources/copyright-ocr/64845.12902757
Image_url could not be downloaded via curl https://nhs-dynamic.secure.footprint.net//Images/Homes/Calatlantic/18649801-160601.jpg - 406
ImageClassifierError - Download/Read Error,https://nhs-dynamic.secure.footprint.net//Images/Homes/Calatlantic/18649801-160601.jpg,./resources/copyright-ocr/14279.jpg
Command '['wget', '-U', 'Mozilla/4.0 (compatible; MSIE 5.5; Windows NT)', '--connect-timeout=3', '--tries=1', '-nc', '-q', 'https://nhs-dynamic.secure.footprint.net//Images/Homes/PulteHom/15640957.jpg', '
-O', './resources/copyright-ocr/64847.jpg']' returned non-zero exit status 1.
Command '['wget', '-U', 'Mozilla/4.0 (compatible; MSIE 5.5; Windows NT)', '--connect-timeout=3', '--tries=1', '-nc', '-q', 'https://nhs-dynamic.secure.footprint.net//Images/Homes/PulteHom/15640959.jpg', '
-O', './resources/copyright-ocr/64849.jpg']' returned non-zero exit status 1.
Image_url could not be downloaded via curl https://nhs-dynamic.secure.footprint.net//Images/Homes/Calatlantic/18869548-160619.jpg - 404
ImageClassifierError - Download/Read Error,https://nhs-dynamic.secure.footprint.net//Images/Homes/Calatlantic/18869548-160619.jpg,./resources/copyright-ocr/40223.jpg



##################################################################3
85488  row- to download and ocr
85489  row- to download and ocr
Start downloading the batch...
Command '['wget', '-U', 'Mozilla/4.0 (compatible; MSIE 5.5; Windows NT)', '--connect-timeout=3', '--tries=1', '-nc', '-q', 'https://nhs-dynamic.secure.footprint.net//Images/Homes/PulteHomes/32394722.jpg', '-O', './resources/copyright-ocr/48950.jpg']' returned non-zero exit status 8.
Command '['wget', '-U', 'Mozilla/4.0 (compatible; MSIE 5.5; Windows NT)', '--connect-timeout=3', '--tries=1', '-nc', '-q', 'https://nhs-dynamic.secure.footprint.net//Images/Homes/PulteHomes/32394721.jpg', '-O', './resources/copyright-ocr/48949.jpg']' returned non-zero exit status 8.
libpng error: Read Error
--- Logging error ---
Traceback (most recent call last):
  File "/home/dsserver/projects/Manish/ocr/fp-ocr/common_utils.py", line 540, in read_image
    image_read = array(Image.open(full_image_path).convert('RGB'))[:, :, ::-1]
  File "/home/dsserver/miniconda/envs/tesseract/lib/python3.6/site-packages/PIL/Image.py", line 912, in convert
    self.load()
  File "/home/dsserver/miniconda/envs/tesseract/lib/python3.6/site-packages/PIL/ImageFile.py", line 239, in load
    len(b))
OSError: image file is truncated (0 bytes not processed)

During handling of the above exception, another exception occurred:

Traceback (most recent call last):
  File "/home/dsserver/miniconda/envs/tesseract/lib/python3.6/logging/__init__.py", line 994, in emit
    msg = self.format(record)
  File "/home/dsserver/miniconda/envs/tesseract/lib/python3.6/logging/__init__.py", line 840, in format
    return fmt.format(record)
  File "/home/dsserver/miniconda/envs/tesseract/lib/python3.6/logging/__init__.py", line 577, in format
    record.message = record.getMessage()
  File "/home/dsserver/miniconda/envs/tesseract/lib/python3.6/logging/__init__.py", line 338, in getMessage
    msg = msg % self.args
TypeError: not all arguments converted during string formatting
Call stack:
  File "/home/dsserver/miniconda/envs/tesseract/lib/python3.6/threading.py", line 884, in _bootstrap
    self._bootstrap_inner()
  File "/home/dsserver/miniconda/envs/tesseract/lib/python3.6/threading.py", line 916, in _bootstrap_inner
    self.run()
  File "/home/dsserver/miniconda/envs/tesseract/lib/python3.6/threading.py", line 864, in run
    self._target(*self._args, **self._kwargs)
  File "/home/dsserver/miniconda/envs/tesseract/lib/python3.6/concurrent/futures/thread.py", line 69, in _worker
    work_item.run()
  File "/home/dsserver/miniconda/envs/tesseract/lib/python3.6/concurrent/futures/thread.py", line 56, in run
    result = self.fn(*self.args, **self.kwargs)
  File "run_ocr_copyright-multithread-27.py", line 35, in process_image_url
    original_image = ImageUtils.read_image(full_image_path)
  File "/home/dsserver/projects/Manish/ocr/fp-ocr/common_utils.py", line 544, in read_image
    logger.critical(full_image_path, 'not processed\n' + str(ex))
Message: './resources/copyright-ocr/84679.png'
Arguments: ('not processed\nimage file is truncated (0 bytes not processed)',)
ImageClassifierError - Read Error,https://nhs-dynamic.secure.footprint.net//Images/Homes/Kirel52583/32399390-190220.png,./resources/copyright-ocr/84679.png
ImageClassifierError - Download/Read Error,https://nhs-dynamic.secure.footprint.net//Images/Homes/PulteHomes/32394722.jpg,./resources/copyright-ocr/48950.jpg
ImageClassifierError - Download/Read Error,https://nhs-dynamic.secure.footprint.net//Images/Homes/PulteHomes/32394721.jpg,./resources/copyright-ocr/48949.jpg


#########################3
 94308
------Object Detection Begins------
Time for box detection:  0.30748987197875977
Time for ocr completion for all bbox:  1.8596599102020264
Total time for execution ocr-end:  2.1727747917175293
Successful ocr  94309
------Object Detection Begins------
Time for box detection:  0.31974148750305176
Time for ocr completion for all bbox:  1.017000436782837
Total time for execution ocr-end:  1.3422949314117432
Successful ocr  94310
Traceback (most recent call last):
  File "run_ocr_copyright-multithread-27.py", line 143, in <module>
    main()
  File "run_ocr_copyright-multithread-27.py", line 111, in main
    for record in idx_url_image_list:
  File "/home/dsserver/miniconda/envs/tesseract/lib/python3.6/concurrent/futures/_base.py", line 586, in result_iterator
    yield fs.pop().result()
  File "/home/dsserver/miniconda/envs/tesseract/lib/python3.6/concurrent/futures/_base.py", line 425, in result
    return self.__get_result()
  File "/home/dsserver/miniconda/envs/tesseract/lib/python3.6/concurrent/futures/_base.py", line 384, in __get_result
    raise self._exception
  File "/home/dsserver/miniconda/envs/tesseract/lib/python3.6/concurrent/futures/thread.py", line 56, in run
    result = self.fn(*self.args, **self.kwargs)
  File "run_ocr_copyright-multithread-27.py", line 27, in process_image_url
    image_name = image_url.rsplit('/', 1)[-1]
AttributeError: 'float' object has no attribute 'rsplit'

[ocr-copyr0:bash*                                                                                                                                                                 "dsserver" 09:14 11-Oct-19